{
  "version": "2.4",
  "vulnerabilities": [
    {
      "category": "sast",
      "message": "Statically-sized arrays can be improperly restricted, leading to potential overflows or other issues (CWE-119!/CWE-120)",
      "cve": "subdir/utils.c:b466873101951fe96e1332f6728eb7010acbbd5dfc3b65d7d53571d091a06d9e:CWE-119!/CWE-120",
      "severity": "Low",
      "solution": "Perform bounds checking, use functions that limit length, or ensure that the size is larger than the maximum possible length",
      "scanner": {
        "id": "flawfinder",
        "name": "Flawfinder"
      },
      "location": {
        "file": "subdir/utils.c",
        "start_line": 4
      },
      "identifiers": [
        {
          "type": "flawfinder_func_name",
          "name": "Flawfinder - char",
          "value": "char"
        },
        {
          "type": "cwe",
          "name": "CWE-119",
          "value": "119",
          "url": "https://cwe.mitre.org/data/definitions/119.html"
        },
        {
          "type": "cwe",
          "name": "CWE-120",
          "value": "120",
          "url": "https://cwe.mitre.org/data/definitions/120.html"
        }
      ]
    },
    {
      "category": "sast",
      "message": "Check when opening files - can an attacker redirect it (via symlinks), force the opening of special file type (e.g., device files), move things around to create a race condition, control its ancestors, or change its contents? (CWE-362)",
      "cve": "subdir/utils.c:bab681140fcc8fc3085b6bba74081b44ea145c1c98b5e70cf19ace2417d30770:CWE-362",
      "severity": "Low",
      "scanner": {
        "id": "flawfinder",
        "name": "Flawfinder"
      },
      "location": {
        "file": "subdir/utils.c",
        "start_line": 8
      },
      "identifiers": [
        {
          "type": "flawfinder_func_name",
          "name": "Flawfinder - fopen",
          "value": "fopen"
        },
        {
          "type": "cwe",
          "name": "CWE-362",
          "value": "362",
          "url": "https://cwe.mitre.org/data/definitions/362.html"
        }
      ]
    }
  ],
  "remediations": [],
  "scan": {
    "scanner": {
      "id": "flawfinder",
      "name": "Flawfinder",
      "url": "https://www.dwheeler.com/flawfinder",
      "vendor": {
        "name": "GitLab"
      },
      "version": "2.0.11"
    },
    "type": "sast",
    "status": "success",
    "start_time": "placeholder-value",
    "end_time": "placeholder-value"
  }
}
